[
  {
    "id": 1,
    "name": "name",
    "description": "description",
    "cashback": 74,
    "logoUrl": "http://placehold.it/100x50",
    "expiryDate": "11/28/2014",
    "category": "category",
    "categoryLogo": "http://placehold.it/50x50",
    "merchantUrl": "http://merchat.com"
  },
  {
    "id": 2,
    "name": "2",
    "description": "vestibulum sagittis sapien cum sociis natoque penatibus et magnis dis parturient montes nascetur ridiculus mus",
    "cashback": 9,
    "logoUrl": "http://placehold.it/100x50",
    "expiryDate": "12/6/2014",
    "category": "Deep Tan Perfecting Makeup Broad Spectrum SPF 25",
    "categoryLogo": "http://placehold.it/50x50",
    "merchantUrl": "http://pcworld.com/mollis.html?ac=posuere"
  },
  {
    "id": 3,
    "name": "3",
    "description": "vitae mattis nibh ligula nec sem duis aliquam convallis nunc proin at turpis",
    "cashback": 22,
    "logoUrl": "http://placehold.it/100x50",
    "expiryDate": "4/17/2015",
    "category": "Paroxetine",
    "categoryLogo": "http://placehold.it/50x50",
    "merchantUrl": "https://sina.com.cn/nulla/sed.js?sem=integer&praesent=non&id=velit&massa=donec&id=diam&nisl=neque&venenatis=vestibulum&lacinia=eget&aenean=vulputate&sit=ut&amet=ultrices&justo=vel&morbi=augue&ut=vestibulum&odio=ante&cras=ipsum&mi=primis&pede=in&malesuada=faucibus&in=orci&imperdiet=luctus&et=et&commodo=ultrices&vulputate=posuere&justo=cubilia&in=curae&blandit=donec&ultrices=pharetra&enim=magna&lorem=vestibulum&ipsum=aliquet&dolor=ultrices&sit=erat&amet=tortor&consectetuer=sollicitudin&adipiscing=mi&elit=sit&proin=amet&interdum=lobortis&mauris=sapien&non=sapien&ligula=non&pellentesque=mi&ultrices=integer&phasellus=ac&id=neque"
  },
  {
    "id": 4,
    "name": "4",
    "description": "libero convallis eget eleifend luctus ultricies eu nibh quisque id justo sit amet sapien dignissim vestibulum",
    "cashback": 98,
    "logoUrl": "http://placehold.it/100x50",
    "expiryDate": "12/12/2014",
    "category": "Sinus and Allergy Releif PE",
    "categoryLogo": "http://placehold.it/50x50",
    "merchantUrl": "https://seesaa.net/non/mattis/pulvinar/nulla/pede/ullamcorper.png?eu=arcu&nibh=adipiscing&quisque=molestie&id=hendrerit&justo=at&sit=vulputate&amet=vitae&sapien=nisl&dignissim=aenean&vestibulum=lectus&vestibulum=pellentesque&ante=eget&ipsum=nunc&primis=donec&in=quis&faucibus=orci&orci=eget&luctus=orci&et=vehicula&ultrices=condimentum&posuere=curabitur&cubilia=in&curae=libero&nulla=ut&dapibus=massa&dolor=volutpat&vel=convallis&est=morbi&donec=odio&odio=odio&justo=elementum"
  },
  {
    "id": 5,
    "name": "5",
    "description": "sagittis dui vel nisl duis ac nibh fusce lacus purus aliquet at feugiat non pretium quis lectus suspendisse",
    "cashback": 80,
    "logoUrl": "http://placehold.it/100x50",
    "category": "White Alder",
    "categoryLogo": "http://placehold.it/50x50",
    "merchantUrl": "https://patch.com/purus/aliquet/at/feugiat/non.js?blandit=morbi&mi=sem&in=mauris&porttitor=laoreet&pede=ut&justo=rhoncus&eu=aliquet&massa=pulvinar&donec=sed"
  },
  {
    "id": 6,
    "name": "6",
    "description": "nulla quisque arcu libero rutrum ac lobortis vel dapibus at diam nam tristique tortor eu",
    "cashback": 50,
    "logoUrl": "http://placehold.it/100x50",
    "category": "Bisacodyl",
    "categoryLogo": "http://placehold.it/50x50",
    "merchantUrl": "https://gnu.org/egestas/metus/aenean/fermentum/donec/ut.jpg?sollicitudin=quisque&vitae=id&consectetuer=justo&eget=sit&rutrum=amet&at=sapien&lorem=dignissim&integer=vestibulum&tincidunt=vestibulum&ante=ante&vel=ipsum&ipsum=primis&praesent=in&blandit=faucibus&lacinia=orci&erat=luctus&vestibulum=et&sed=ultrices&magna=posuere&at=cubilia&nunc=curae&commodo=nulla&placerat=dapibus&praesent=dolor&blandit=vel&nam=est&nulla=donec&integer=odio&pede=justo&justo=sollicitudin&lacinia=ut&eget=suscipit&tincidunt=a&eget=feugiat&tempus=et&vel=eros&pede=vestibulum&morbi=ac&porttitor=est&lorem=lacinia&id=nisi&ligula=venenatis&suspendisse=tristique&ornare=fusce&consequat=congue&lectus=diam&in=id&est=ornare&risus=imperdiet&auctor=sapien&sed=urna&tristique=pretium&in=nisl&tempus=ut&sit=volutpat&amet=sapien&sem=arcu&fusce=sed&consequat=augue&nulla=aliquam&nisl=erat&nunc=volutpat&nisl=in&duis=congue&bibendum=etiam&felis=justo&sed=etiam&interdum=pretium&venenatis=iaculis&turpis=justo&enim=in&blandit=hac&mi=habitasse&in=platea&porttitor=dictumst&pede=etiam&justo=faucibus&eu=cursus&massa=urna"
  },
  {
    "id": 7,
    "name": "7",
    "description": "ipsum primis in faucibus orci luctus et ultrices posuere cubilia curae",
    "cashback": 33,
    "logoUrl": "http://placehold.it/100x50",
    "expiryDate": "12/27/2014",
    "category": "Antibacterial Foaming Hand Cleanser",
    "categoryLogo": "http://placehold.it/50x50",
    "merchantUrl": "https://parallels.com/lacus/curabitur/at/ipsum/ac/tellus/semper.aspx?in=tempus&faucibus=vel&orci=pede&luctus=morbi&et=porttitor&ultrices=lorem&posuere=id&cubilia=ligula&curae=suspendisse&duis=ornare&faucibus=consequat&accumsan=lectus&odio=in&curabitur=est&convallis=risus&duis=auctor&consequat=sed&dui=tristique&nec=in&nisi=tempus&volutpat=sit&eleifend=amet&donec=sem&ut=fusce&dolor=consequat&morbi=nulla&vel=nisl&lectus=nunc&in=nisl&quam=duis&fringilla=bibendum&rhoncus=felis&mauris=sed&enim=interdum&leo=venenatis&rhoncus=turpis&sed=enim&vestibulum=blandit&sit=mi&amet=in&cursus=porttitor&id=pede&turpis=justo&integer=eu&aliquet=massa&massa=donec&id=dapibus&lobortis=duis&convallis=at&tortor=velit&risus=eu&dapibus=est&augue=congue&vel=elementum&accumsan=in&tellus=hac&nisi=habitasse&eu=platea&orci=dictumst&mauris=morbi&lacinia=vestibulum&sapien=velit&quis=id&libero=pretium&nullam=iaculis&sit=diam&amet=erat&turpis=fermentum&elementum=justo&ligula=nec&vehicula=condimentum&consequat=neque&morbi=sapien&a=placerat&ipsum=ante&integer=nulla&a=justo&nibh=aliquam&in=quis&quis=turpis&justo=eget&maecenas=elit&rhoncus=sodales&aliquam=scelerisque&lacus=mauris&morbi=sit&quis=amet&tortor=eros&id=suspendisse&nulla=accumsan&ultrices=tortor&aliquet=quis&maecenas=turpis&leo=sed&odio=ante&condimentum=vivamus"
  },
  {
    "id": 8,
    "name": "8",
    "description": "sapien ut nunc vestibulum ante ipsum primis in faucibus orci luctus",
    "cashback": 18,
    "logoUrl": "http://placehold.it/100x50",
    "expiryDate": "12/9/2014",
    "category": "Pre-Scrub II",
    "categoryLogo": "http://placehold.it/50x50",
    "merchantUrl": "http://arizona.edu/pellentesque/ultrices/phasellus/id.json?amet=erat&turpis=fermentum&elementum=justo&ligula=nec&vehicula=condimentum&consequat=neque&morbi=sapien&a=placerat&ipsum=ante&integer=nulla&a=justo&nibh=aliquam&in=quis&quis=turpis&justo=eget&maecenas=elit&rhoncus=sodales&aliquam=scelerisque&lacus=mauris&morbi=sit&quis=amet&tortor=eros&id=suspendisse&nulla=accumsan&ultrices=tortor&aliquet=quis&maecenas=turpis&leo=sed&odio=ante&condimentum=vivamus&id=tortor&luctus=duis&nec=mattis&molestie=egestas&sed=metus&justo=aenean&pellentesque=fermentum&viverra=donec&pede=ut&ac=mauris&diam=eget&cras=massa&pellentesque=tempor&volutpat=convallis&dui=nulla&maecenas=neque&tristique=libero&est=convallis&et=eget&tempus=eleifend&semper=luctus&est=ultricies&quam=eu&pharetra=nibh&magna=quisque&ac=id&consequat=justo&metus=sit"
  },
  {
    "id": 9,
    "name": "9",
    "description": "semper porta volutpat quam pede lobortis ligula sit amet eleifend pede libero quis orci nullam molestie nibh",
    "cashback": 65,
    "logoUrl": "http://placehold.it/100x50",
    "expiryDate": "5/13/2015",
    "category": "Erythromycin",
    "categoryLogo": "http://placehold.it/50x50",
    "merchantUrl": "https://histats.com/luctus/et.png?libero=pede&non=malesuada&mattis=in&pulvinar=imperdiet&nulla=et&pede=commodo&ullamcorper=vulputate&augue=justo&a=in&suscipit=blandit&nulla=ultrices&elit=enim&ac=lorem&nulla=ipsum&sed=dolor&vel=sit&enim=amet&sit=consectetuer&amet=adipiscing&nunc=elit&viverra=proin&dapibus=interdum&nulla=mauris&suscipit=non"
  },
  {
    "id": 10,
    "name": "10",
    "description": "facilisi cras non velit nec nisi vulputate nonummy maecenas tincidunt lacus at velit vivamus vel nulla",
    "cashback": 33,
    "logoUrl": "http://placehold.it/100x50",
    "category": "Diltiazem Hydrochloride",
    "categoryLogo": "http://placehold.it/50x50",
    "merchantUrl": "http://aol.com/fermentum.png?urna=tempus&pretium=vel&nisl=pede&ut=morbi&volutpat=porttitor&sapien=lorem&arcu=id&sed=ligula"
  },
  {
    "id": 11,
    "name": "11",
    "description": "proin eu mi nulla ac enim in tempor turpis nec euismod scelerisque quam turpis adipiscing lorem vitae",
    "cashback": 59,
    "logoUrl": "http://placehold.it/100x50",
    "expiryDate": "1/14/2015",
    "category": "Amlodipine Besylate",
    "categoryLogo": "http://placehold.it/50x50",
    "merchantUrl": "https://tripod.com/sit/amet/eros/suspendisse/accumsan/tortor/quis.xml?donec=quis&diam=lectus&neque=suspendisse&vestibulum=potenti&eget=in&vulputate=eleifend&ut=quam&ultrices=a&vel=odio&augue=in&vestibulum=hac&ante=habitasse&ipsum=platea&primis=dictumst&in=maecenas&faucibus=ut&orci=massa&luctus=quis&et=augue&ultrices=luctus&posuere=tincidunt&cubilia=nulla&curae=mollis&donec=molestie&pharetra=lorem&magna=quisque&vestibulum=ut&aliquet=erat&ultrices=curabitur&erat=gravida&tortor=nisi&sollicitudin=at&mi=nibh&sit=in&amet=hac&lobortis=habitasse&sapien=platea&sapien=dictumst&non=aliquam&mi=augue&integer=quam&ac=sollicitudin&neque=vitae&duis=consectetuer&bibendum=eget&morbi=rutrum&non=at&quam=lorem&nec=integer&dui=tincidunt&luctus=ante&rutrum=vel&nulla=ipsum&tellus=praesent&in=blandit&sagittis=lacinia&dui=erat&vel=vestibulum&nisl=sed&duis=magna&ac=at&nibh=nunc&fusce=commodo&lacus=placerat&purus=praesent&aliquet=blandit&at=nam&feugiat=nulla&non=integer&pretium=pede&quis=justo&lectus=lacinia&suspendisse=eget&potenti=tincidunt&in=eget&eleifend=tempus&quam=vel&a=pede&odio=morbi&in=porttitor&hac=lorem&habitasse=id&platea=ligula"
  },
  {
    "id": 12,
    "name": "12",
    "description": "ut at dolor quis odio consequat varius integer ac leo pellentesque",
    "cashback": 96,
    "logoUrl": "http://placehold.it/100x50",
    "category": "Trelstar",
    "categoryLogo": "http://placehold.it/50x50",
    "merchantUrl": "http://merriam-webster.com/integer/ac.aspx?nonummy=curabitur&integer=in&non=libero&velit=ut&donec=massa&diam=volutpat&neque=convallis&vestibulum=morbi&eget=odio&vulputate=odio&ut=elementum&ultrices=eu&vel=interdum&augue=eu&vestibulum=tincidunt&ante=in&ipsum=leo&primis=maecenas&in=pulvinar&faucibus=lobortis&orci=est&luctus=phasellus&et=sit&ultrices=amet&posuere=erat&cubilia=nulla&curae=tempus&donec=vivamus&pharetra=in&magna=felis&vestibulum=eu&aliquet=sapien&ultrices=cursus&erat=vestibulum&tortor=proin&sollicitudin=eu&mi=mi&sit=nulla&amet=ac&lobortis=enim&sapien=in&sapien=tempor&non=turpis&mi=nec&integer=euismod&ac=scelerisque&neque=quam&duis=turpis&bibendum=adipiscing&morbi=lorem&non=vitae&quam=mattis&nec=nibh&dui=ligula&luctus=nec"
  },
  {
    "id": 13,
    "name": "13",
    "description": "bibendum morbi non quam nec dui luctus rutrum nulla tellus in sagittis dui vel nisl duis",
    "cashback": 98,
    "logoUrl": "http://placehold.it/100x50",
    "category": "Atenolol",
    "categoryLogo": "http://placehold.it/50x50",
    "merchantUrl": "http://ted.com/dolor/sit/amet/consectetuer/adipiscing/elit/proin.png?lorem=at&id=velit&ligula=eu&suspendisse=est&ornare=congue&consequat=elementum&lectus=in&in=hac&est=habitasse&risus=platea&auctor=dictumst&sed=morbi&tristique=vestibulum&in=velit&tempus=id&sit=pretium&amet=iaculis&sem=diam&fusce=erat&consequat=fermentum&nulla=justo&nisl=nec&nunc=condimentum&nisl=neque&duis=sapien&bibendum=placerat&felis=ante&sed=nulla&interdum=justo&venenatis=aliquam&turpis=quis&enim=turpis&blandit=eget&mi=elit&in=sodales&porttitor=scelerisque&pede=mauris&justo=sit&eu=amet&massa=eros&donec=suspendisse&dapibus=accumsan&duis=tortor"
  },
  {
    "id": 14,
    "name": "14",
    "description": "hendrerit at vulputate vitae nisl aenean lectus pellentesque eget nunc donec quis orci eget",
    "cashback": 41,
    "logoUrl": "http://placehold.it/100x50",
    "expiryDate": "7/31/2015",
    "category": "OxyContin",
    "categoryLogo": "http://placehold.it/50x50",
    "merchantUrl": "https://twitpic.com/nec/molestie.aspx?orci=mi&nullam=pede&molestie=malesuada&nibh=in&in=imperdiet&lectus=et&pellentesque=commodo&at=vulputate&nulla=justo&suspendisse=in&potenti=blandit&cras=ultrices&in=enim&purus=lorem&eu=ipsum&magna=dolor&vulputate=sit&luctus=amet&cum=consectetuer&sociis=adipiscing&natoque=elit&penatibus=proin&et=interdum&magnis=mauris&dis=non&parturient=ligula&montes=pellentesque&nascetur=ultrices&ridiculus=phasellus&mus=id&vivamus=sapien&vestibulum=in&sagittis=sapien&sapien=iaculis&cum=congue&sociis=vivamus&natoque=metus&penatibus=arcu&et=adipiscing&magnis=molestie&dis=hendrerit&parturient=at&montes=vulputate&nascetur=vitae&ridiculus=nisl&mus=aenean&etiam=lectus&vel=pellentesque&augue=eget&vestibulum=nunc&rutrum=donec&rutrum=quis&neque=orci&aenean=eget&auctor=orci&gravida=vehicula&sem=condimentum&praesent=curabitur&id=in&massa=libero&id=ut&nisl=massa&venenatis=volutpat&lacinia=convallis&aenean=morbi&sit=odio"
  },
  {
    "id": 15,
    "name": "15",
    "description": "pede malesuada in imperdiet et commodo vulputate justo in blandit ultrices enim lorem ipsum dolor sit amet consectetuer adipiscing",
    "cashback": 69,
    "logoUrl": "http://placehold.it/100x50",
    "expiryDate": "5/20/2015",
    "category": "Navane",
    "categoryLogo": "http://placehold.it/50x50",
    "merchantUrl": "https://blogs.com/pretium/iaculis/diam/erat.aspx?etiam=nisi&faucibus=venenatis&cursus=tristique&urna=fusce&ut=congue&tellus=diam&nulla=id&ut=ornare&erat=imperdiet&id=sapien&mauris=urna&vulputate=pretium&elementum=nisl&nullam=ut&varius=volutpat&nulla=sapien&facilisi=arcu&cras=sed&non=augue&velit=aliquam&nec=erat&nisi=volutpat&vulputate=in&nonummy=congue&maecenas=etiam&tincidunt=justo&lacus=etiam&at=pretium&velit=iaculis&vivamus=justo&vel=in&nulla=hac&eget=habitasse&eros=platea&elementum=dictumst&pellentesque=etiam&quisque=faucibus&porta=cursus&volutpat=urna&erat=ut&quisque=tellus&erat=nulla&eros=ut&viverra=erat&eget=id&congue=mauris&eget=vulputate&semper=elementum&rutrum=nullam&nulla=varius&nunc=nulla&purus=facilisi&phasellus=cras&in=non&felis=velit&donec=nec&semper=nisi&sapien=vulputate&a=nonummy&libero=maecenas&nam=tincidunt&dui=lacus&proin=at&leo=velit"
  },
  {
    "id": 16,
    "name": "16",
    "description": "cras mi pede malesuada in imperdiet et commodo vulputate justo in blandit ultrices",
    "cashback": 42,
    "logoUrl": "http://placehold.it/100x50",
    "category": "Oxygen",
    "categoryLogo": "http://placehold.it/50x50",
    "merchantUrl": "https://shop-pro.jp/lobortis/sapien/sapien/non.html?ipsum=vulputate&praesent=justo&blandit=in&lacinia=blandit&erat=ultrices&vestibulum=enim&sed=lorem&magna=ipsum&at=dolor&nunc=sit&commodo=amet&placerat=consectetuer&praesent=adipiscing&blandit=elit&nam=proin&nulla=interdum&integer=mauris&pede=non&justo=ligula&lacinia=pellentesque&eget=ultrices&tincidunt=phasellus&eget=id&tempus=sapien&vel=in&pede=sapien&morbi=iaculis&porttitor=congue&lorem=vivamus&id=metus&ligula=arcu&suspendisse=adipiscing&ornare=molestie&consequat=hendrerit&lectus=at&in=vulputate&est=vitae&risus=nisl&auctor=aenean&sed=lectus&tristique=pellentesque&in=eget&tempus=nunc&sit=donec&amet=quis&sem=orci&fusce=eget&consequat=orci&nulla=vehicula&nisl=condimentum&nunc=curabitur&nisl=in&duis=libero&bibendum=ut&felis=massa&sed=volutpat&interdum=convallis&venenatis=morbi&turpis=odio&enim=odio&blandit=elementum&mi=eu&in=interdum&porttitor=eu&pede=tincidunt&justo=in&eu=leo&massa=maecenas"
  },
  {
    "id": 17,
    "name": "17",
    "description": "pretium nisl ut volutpat sapien arcu sed augue aliquam erat volutpat in congue etiam justo etiam pretium iaculis justo in",
    "cashback": 88,
    "logoUrl": "http://placehold.it/100x50",
    "expiryDate": "6/26/2015",
    "category": "Promethazine Hydrochloride",
    "categoryLogo": "http://placehold.it/50x50",
    "merchantUrl": "http://tripod.com/at/nibh/in/hac/habitasse.json?et=ornare&ultrices=imperdiet&posuere=sapien&cubilia=urna&curae=pretium&nulla=nisl&dapibus=ut&dolor=volutpat&vel=sapien&est=arcu&donec=sed&odio=augue&justo=aliquam&sollicitudin=erat&ut=volutpat&suscipit=in&a=congue&feugiat=etiam&et=justo&eros=etiam&vestibulum=pretium&ac=iaculis&est=justo&lacinia=in&nisi=hac&venenatis=habitasse&tristique=platea&fusce=dictumst&congue=etiam&diam=faucibus&id=cursus&ornare=urna&imperdiet=ut&sapien=tellus&urna=nulla&pretium=ut&nisl=erat&ut=id&volutpat=mauris&sapien=vulputate&arcu=elementum&sed=nullam&augue=varius&aliquam=nulla&erat=facilisi&volutpat=cras&in=non&congue=velit&etiam=nec&justo=nisi&etiam=vulputate&pretium=nonummy&iaculis=maecenas&justo=tincidunt&in=lacus&hac=at&habitasse=velit&platea=vivamus&dictumst=vel&etiam=nulla&faucibus=eget&cursus=eros&urna=elementum&ut=pellentesque&tellus=quisque"
  },
  {
    "id": 18,
    "name": "18",
    "description": "congue risus semper porta volutpat quam pede lobortis ligula sit amet eleifend pede libero quis",
    "cashback": 8,
    "logoUrl": "http://placehold.it/100x50",
    "category": "Fluoroplex",
    "categoryLogo": "http://placehold.it/50x50",
    "merchantUrl": "https://mtv.com/proin/interdum/mauris/non/ligula.xml?vivamus=neque&metus=sapien&arcu=placerat&adipiscing=ante&molestie=nulla&hendrerit=justo&at=aliquam&vulputate=quis&vitae=turpis&nisl=eget&aenean=elit&lectus=sodales&pellentesque=scelerisque&eget=mauris&nunc=sit&donec=amet&quis=eros&orci=suspendisse&eget=accumsan&orci=tortor&vehicula=quis&condimentum=turpis&curabitur=sed&in=ante&libero=vivamus&ut=tortor&massa=duis&volutpat=mattis&convallis=egestas&morbi=metus&odio=aenean&odio=fermentum&elementum=donec&eu=ut&interdum=mauris&eu=eget&tincidunt=massa&in=tempor&leo=convallis&maecenas=nulla&pulvinar=neque&lobortis=libero&est=convallis&phasellus=eget&sit=eleifend&amet=luctus&erat=ultricies&nulla=eu&tempus=nibh&vivamus=quisque&in=id&felis=justo&eu=sit&sapien=amet&cursus=sapien&vestibulum=dignissim&proin=vestibulum&eu=vestibulum&mi=ante&nulla=ipsum&ac=primis&enim=in&in=faucibus&tempor=orci&turpis=luctus&nec=et&euismod=ultrices&scelerisque=posuere&quam=cubilia&turpis=curae&adipiscing=nulla&lorem=dapibus&vitae=dolor&mattis=vel&nibh=est&ligula=donec&nec=odio&sem=justo&duis=sollicitudin&aliquam=ut&convallis=suscipit&nunc=a&proin=feugiat&at=et&turpis=eros"
  },
  {
    "id": 19,
    "name": "19",
    "description": "ut odio cras mi pede malesuada in imperdiet et commodo",
    "cashback": 28,
    "logoUrl": "http://placehold.it/100x50",
    "category": "Clindamycin",
    "categoryLogo": "http://placehold.it/50x50",
    "merchantUrl": "https://marriott.com/eleifend.aspx?dis=vestibulum&parturient=sagittis&montes=sapien&nascetur=cum&ridiculus=sociis&mus=natoque&etiam=penatibus&vel=et&augue=magnis&vestibulum=dis&rutrum=parturient&rutrum=montes&neque=nascetur&aenean=ridiculus&auctor=mus&gravida=etiam&sem=vel&praesent=augue&id=vestibulum&massa=rutrum&id=rutrum&nisl=neque&venenatis=aenean&lacinia=auctor&aenean=gravida&sit=sem&amet=praesent&justo=id&morbi=massa&ut=id&odio=nisl&cras=venenatis&mi=lacinia&pede=aenean&malesuada=sit&in=amet&imperdiet=justo&et=morbi&commodo=ut&vulputate=odio&justo=cras&in=mi&blandit=pede&ultrices=malesuada&enim=in&lorem=imperdiet&ipsum=et&dolor=commodo&sit=vulputate&amet=justo&consectetuer=in&adipiscing=blandit&elit=ultrices"
  },
  {
    "id": 20,
    "name": "20",
    "description": "tristique est et tempus semper est quam pharetra magna ac consequat metus sapien ut nunc vestibulum ante ipsum primis in",
    "cashback": 12,
    "logoUrl": "http://placehold.it/100x50",
    "expiryDate": "12/10/2014",
    "category": "Face Mix Make up Base Green",
    "categoryLogo": "http://placehold.it/50x50",
    "merchantUrl": "http://unblog.fr/pede/ac/diam/cras/pellentesque.html?proin=donec&at=posuere&turpis=metus&a=vitae&pede=ipsum&posuere=aliquam&nonummy=non&integer=mauris&non=morbi&velit=non&donec=lectus&diam=aliquam&neque=sit&vestibulum=amet&eget=diam&vulputate=in&ut=magna&ultrices=bibendum&vel=imperdiet&augue=nullam&vestibulum=orci&ante=pede&ipsum=venenatis&primis=non&in=sodales&faucibus=sed&orci=tincidunt&luctus=eu&et=felis&ultrices=fusce&posuere=posuere&cubilia=felis&curae=sed&donec=lacus&pharetra=morbi&magna=sem&vestibulum=mauris&aliquet=laoreet&ultrices=ut&erat=rhoncus&tortor=aliquet&sollicitudin=pulvinar&mi=sed&sit=nisl&amet=nunc&lobortis=rhoncus&sapien=dui&sapien=vel&non=sem&mi=sed&integer=sagittis&ac=nam&neque=congue&duis=risus&bibendum=semper&morbi=porta&non=volutpat&quam=quam&nec=pede&dui=lobortis&luctus=ligula&rutrum=sit&nulla=amet&tellus=eleifend&in=pede&sagittis=libero&dui=quis&vel=orci&nisl=nullam&duis=molestie&ac=nibh"
  }
]